periplex_design_5_write_read/periplex_design_5_write_read/both series par.vcd
$date
	Thu Apr 04 19:09:37 2024
$end
$version
	GTKWave Analyzer v3.3.108 (w)1999-2020 BSI
$end
$timescale
	1ns
$end
$scope module top $end
$var wire 1 1 pp/uart_grp/parallel $end
$var wire 2 * pp/req_arb/state[1:0] $end
$var wire 1 # pp/ppe1/fifo_en $end
$var wire 3 & pp/ppe1/state[2:0] $end
$var wire 64 + pp/uart_grp/config_bus[63:0] $end
$var wire 102 - pp/uart_grp/dt_fifo_data[101:0] $end
$var wire 2 . pp/uart_grp/dt_fifo_enable[1:0] $end
$var wire 4 , pp/uart_grp/count[3:0] $end
$var wire 48 " pp/ppe1/fifo_data[47:0] $end
$var wire 1 4 pp/uart_grp/rd_dv $end
$var wire 1 < test_txctrl/f_empty $end
$var wire 1 ) pp/req_arb/rd_slave_id $end
$var wire 48 $ pp/ppe1/rd_data[47:0] $end
$var wire 102 8 pp/w_dt_fifo_data[101:0] $end
$var wire 1 / pp/uart_grp/int_ack $end
$var wire 1 ( pp/req_arb/rd_req_ack $end
$var wire 1 : pp/w_uart_grp_en $end
$var wire 3 6 pp/uart_grp/state[2:0] $end
$var wire 1 7 pp/uart_grp/uart_grp_en $end
$var wire 2 9 pp/w_dt_fifo_enable[1:0] $end
$var wire 2 5 pp/uart_grp/rd_fifo_en[1:0] $end
$var wire 48 2 pp/uart_grp/r_rd_data[47:0] $end
$var wire 1 = test_txctrl/rd_en $end
$var wire 1 ' pp/req_arb/rd_req $end
$var wire 1 % pp/ppe1/rd_dv $end
$var wire 48 3 pp/uart_grp/rd_data[47:0] $end
$var wire 1 0 pp/uart_grp/interrupt $end
$var wire 48 ; test_txctrl/data[47:0] $end
$upscope $end
$enddefinitions $end
#0
$dumpvars
0/
b1000000100000000000000000000000001000001 2
b0 "
b10 &
01
b10 *
0:
b111 ,
0(
1<
b101000000000000000000000000000001010 +
b0 6
07
b0 5
14
b0 9
b0 ;
b1000000100000000000000000000000001000001 $
b0 -
0=
0#
1%
0)
1'
b0 8
00
b1000000100000000000000000000000001000001 3
b0 .
$end
#1
b1000000100000000000000000000000001000010 2
b1000000100000000000000000000000001000010 3
b1000000100000000000000000000000001000010 $
#2
b1000000100000000000000000000000001000011 $
0<
b1000000100000000000000000000000001000011 3
b1000000100000000000000000000000001000011 2
#3
b1000000100000000000000000000000001000100 2
b1000000100000000000000000000000001000100 $
b1000000100000000000000000000000001000100 3
#4
b1000001100000000000000000100001001000001 3
b1000001100000000000000000100001001000001 2
b1000001100000000000000000100001001000001 $
1<
#5
b1000000100000000000000000100001001000001 3
b1000000100000000000000000100001001000001 $
b1000000100000000000000000100001001000001 2
#6
b1000000100000000000000000100001001000010 2
b1000000100000000000000000100001001000010 $
b1000000100000000000000000100001001000010 3
#7
b1000000100000000000000000100001001000011 3
0<
b1000000100000000000000000100001001000011 $
b1000000100000000000000000100001001000011 2
